<?xml version="1.0" encoding="utf-8"?>
<!-- Generator: Adobe Illustrator 22.1.0, SVG Export Plug-In . SVG Version: 6.00 Build 0)  -->
<svg version="1.1" id="Layer_1" xmlns="http://www.w3.org/2000/svg" xmlns:xlink="http://www.w3.org/1999/xlink" x="0px" y="0px"
	 viewBox="0 0 512 512" style="enable-background:new 0 0 512 512;" xml:space="preserve">
<style type="text/css">
	.st0{fill:#5A2C7E;}
	.st1{fill:#EF414B;}
</style>
<g>
	<path class="st0" d="M485.1,80.1H291.9c-3.9,0-7.6-1.4-10.5-3.9L246,45.6c-6.8-5.9-15.6-9.1-24.6-9.1H94.4
		c-14.8,0-26.9,12.1-26.9,26.9v36H26.9C12.1,99.3,0,111.4,0,126.2v322.4c0,14.8,12.1,26.9,26.9,26.9h390.7
		c14.8,0,26.9-12.1,26.9-26.9v-35.9h40.6c14.8,0,26.9-12.1,26.9-26.9V107C512,92.2,499.9,80.1,485.1,80.1z M423,448.6
		c0,3-2.4,5.4-5.4,5.4H26.9c-3,0-5.4-2.4-5.4-5.4V227.4H423L423,448.6L423,448.6z M423,205.9H21.5v-79.7c0-3,2.4-5.4,5.4-5.4h126.9
		c3.9,0,7.6,1.4,10.5,3.9l35.4,30.6c6.8,5.9,15.6,9.1,24.6,9.1h193.2c3,0,5.4,2.4,5.4,5.4V205.9z M490.5,385.8c0,3-2.4,5.4-5.4,5.4
		h-40.6V169.9c0-14.8-12.1-26.9-26.9-26.9H224.4c-3.9,0-7.6-1.4-10.5-3.9l-35.4-30.6c-6.8-5.9-15.6-9.1-24.6-9.1H89v-36
		c0-3,2.4-5.4,5.4-5.4h126.9c3.9,0,7.6,1.4,10.5,3.9l35.4,30.6c6.8,5.9,15.6,9.1,24.6,9.1h193.2c3,0,5.4,2.4,5.4,5.4L490.5,385.8
		L490.5,385.8z"/>
</g>
<g>
	<g>
		<path class="st1" d="M380.1,264.1h-64.4c-5.9,0-10.8,4.8-10.8,10.8c0,5.9,4.8,10.8,10.8,10.8h64.4c5.9,0,10.8-4.8,10.8-10.8
			C390.9,268.9,386.1,264.1,380.1,264.1z"/>
	</g>
</g>
<g>
	<g>
		<path class="st1" d="M380.1,315.8h-64.4c-5.9,0-10.8,4.8-10.8,10.8s4.8,10.8,10.8,10.8h64.4c5.9,0,10.8-4.8,10.8-10.8
			S386.1,315.8,380.1,315.8z"/>
	</g>
</g>
</svg>
